############################
# World Cup 2018 Russia

Group A  |  Russia       Saudi Arabia         Egypt          Uruguay
Group B  |  Portugal     Spain                Morocco        Iran
Group C  |  France       Australia            Peru           Denmark
Group D  |  Argentina    Iceland              Croatia        Nigeria
Group E  |  Brazil       Switzerland          Costa Rica     Serbia
Group F  |  Germany      Mexico               Sweden         South Korea
Group G  |  Belgium      Panama               Tunisia        England
Group H  |  Poland       Senegal              Colombia       Japan


Matchday 1  |  Thu Jun/14
Matchday 2  |  Fri Jun/15
Matchday 3  |  Sat Jun/16
Matchday 4  |  Sun Jun/17
Matchday 5  |  Mon Jun/18
Matchday 6  |  Tue Jun/19
Matchday 7  |  Wed Jun/20
Matchday 8  |  Thu Jun/21
Matchday 9  |  Fri Jun/22
Matchday 10 |  Sat Jun/23
Matchday 11 |  Sun Jun/24
Matchday 12 |  Mon Jun/25
Matchday 13 |  Tue Jun/26
Matchday 14 |  Wed Jun/27
Matchday 15 |  Thu Jun/28

(16) Round of 16            |  Sat Jun/30 - Tue Jul/3
(17) Quarter-finals         |  Fri Jul/6 - Sat Jul/7
(18) Semi-finals            |  Tue Jul/10 - Wed Jul/11
(19) Match for third place  |  Sat Jul/14
(20) Final                  |  Sun Jul/15



Group A:

 (1) Thu Jun/14 18:00      Russia       5-0 (2-0)  Saudi Arabia     @ Luzhniki Stadium, Moscow (UTC+3)
        [Gazinsky 12' Cheryshev 43', 90+1' Dzyuba 71' Golovin 90+4']
 (2) Fri Jun/15 17:00      Egypt         0-1 (0-0)  Uruguay          @ Ekaterinburg Arena, Ekaterinburg (UTC+5)
        [-; Giménez 89']
    
(17) Tue Jun/19 21:00      Russia        3-1 (0-0)  Egypt            @ Saint Petersburg Stadium, Saint Petersburg (UTC+3)
        [A. Fathi 47' (o.g.) Cheryshev 59' Dzyuba 62'; M. Salah 73' (pen.)]
(18) Wed Jun/20 18:00      Uruguay       1-0 (1-0)  Saudi Arabia     @ Rostov Arena, Rostov-on-Don (UTC+3)
        [L. Suárez 23']

(33) Mon Jun/25 18:00      Uruguay       3-0 (2-0)  Russia           @ Samara Arena, Samara (UTC+4)
        [L. Suárez 10' Cheryshev 23' (o.g.) E. Cavani 90']
(34) Mon Jun/25 17:00      Saudi Arabia  2-1 (1-1)  Egypt            @ Volgograd Arena, Volgograd (UTC+3)
        [Salman Al-Faraj 45+6' (pen.) Salem Al-Dawsari 90+5'; M. Salah 22']


Group B:

 (4) Fri Jun/15 18:00     Morocco       0-1 (0-0)  Iran    @ Saint Petersburg Stadium, Saint Petersburg (UTC+3)
        [-; Bouhaddouz 90+5' (o.g.)]  
 (3) Fri Jun/15 21:00     Portugal      3-3 (2-1)  Spain   @ Fisht Stadium, Sochi (UTC+3)
        [Ronaldo 4' (pen.), 44', 88'; Costa 24', 55' Nacho 58']

(19) Wed Jun/20 15:00     Portugal      1-0 (1-0)  Morocco  @ Luzhniki Stadium, Moscow (UTC+3)
        [Ronaldo 4']
(20) Wed Jun/20 21:00     Iran          0-1 (0-0)  Spain    @ Kazan Arena, Kazan (UTC+3)
        [-; Diego Costa 54']

(35) Mon Jun/25 21:00     Iran          1-1 (0-1)  Portugal @ Mordovia Arena, Saransk (UTC+3)
        [Karim Ansarifard 90+3' (pen.); Quaresma 45']
(36) Mon Jun/25 20:00     Spain         2-2 (1-1)  Morocco  @ Kaliningrad Stadium, Kaliningrad (UTC+2)
        [Isco 19' Iago Aspas 90+1'; Boutaib 14' En-Nesyri 81']


Group C:

 (5) Sat Jun/16 13:00     France        2-1 (0-0)  Australia  @ Kazan Arena, Kazan (UTC+3)
             [Griezmann 58' (pen.) Behich 81' (o.g.); Jedinak 62' (pen.)]               
 (6) Sat Jun/16 19:00     Peru          0-1 (0-0)  Denmark    @ Mordovia Arena, Saransk (UTC+3)
             [-; Poulsen 59']
 
(22) Thu Jun/21 16:00     Denmark       1-1 (1-1)  Australia  @ Samara Arena, Samara (UTC+4)
             [Eriksen 7'; Jedinak 38' (pen.)]
(21) Thu Jun/21 20:00     France        1-0 (1-0)  Peru       @ Ekaterinburg Arena, Ekaterinburg (UTC+5)
             [Mbappé 34']

(37) Tue Jun/26 17:00     Denmark       0-0 (0-0) France    @ Luzhniki Stadium, Moscow (UTC+3)
(38) Tue Jun/26 17:00     Australia     0-2 (0-1)  Peru      @ Fisht Stadium, Sochi (UTC+3)
             [-; Carrillo 18' Guerrero 50']


Group D:

 (7) Sat Jun/16 16:00      Argentina   1-1 (1-1)   Iceland    @ Spartak Stadium, Moscow (UTC+3)
            [Agüero 19'; Finnbogason 23']
 (8) Sat Jun/16 21:00      Croatia     2-0 (1-0)   Nigeria    @ Kaliningrad Stadium, Kaliningrad (UTC+2)
            [Etebo 32' (o.g.) Modrić 71' (pen.)]

(23) Thu Jun/21 21:00      Argentina   0-3 (0-0)   Croatia    @ Nizhny Novgorod Stadium, Nizhny Novgorod (UTC+3)
            [-; Rebić 53' Modrić 80' Rakitić 90+1']
(24) Fri Jun/22 18:00      Nigeria     2-0 (0-0)   Iceland    @ Volgograd Arena, Volgograd (UTC+3)
            [Musa 49', 75']

(39) Tue Jun/26 21:00      Nigeria     1-2 (0-1)   Argentina    @ Saint Petersburg Stadium, Saint Petersburg (UTC+3)
            [Moses 51' (pen.); Messi 14' Marcos Rojo 86']
(40) Tue Jun/26 21:00      Iceland     1-2 (0-0)   Croatia      @ Rostov Arena, Rostov-on-Don (UTC+3)
            [G. Sigurðsson 76' (pen.); Badelj 53' Perišić 90']


Group E:

(10) Sun Jun/17 16:00       Costa Rica   0-1 (0-0)  Serbia          @ Samara Arena, Samara (UTC+4)
            [-; Kolarov 56']
 (9) Sun Jun/17 21:00       Brazil       1-1 (1-0)  Switzerland     @ Rostov Arena, Rostov-on-Don (UTC+3)
            [Coutinho 20'; Zuber 50']

(25) Fri Jun/22 15:00       Brazil   2-0 (0-0)   Costa Rica     @ Saint Petersburg Stadium, Saint Petersburg (UTC+3)
            [P. Coutinho 90+1 Neymar Jr 90+7']
(26) Fri Jun/22 20:00       Serbia   1-2 (1-0)    Switzerland   @ Kaliningrad Stadium, Kaliningrad (UTC+2)
            [Mitrović 5'; Xhaka 52' Shaqiri 90']

(41) Wed Jun/27 21:00       Serbia   0-2 (0-1) Brazil         @ Spartak Stadium, Moscow (UTC+3)
            [-; Paulinho 36' Thiago Silva 68']
(42) Wed Jun/27 21:00       Switzerland 2-2 (1-0) Costa Rica     @ Nizhny Novgorod Stadium, Nizhny Novgorod (UTC+3)
            [Džemaili 31' Drmić 88'; Waston 56' Sommer 90+3' (o.g.)]

Group F:

(11) Sun Jun/17 18:00        Germany   0-1 (0-1)   Mexico       @ Luzhniki Stadium, Moscow (UTC+3)
            [-; Lozano 35']
(12) Mon Jun/18 15:00        Sweden    1-0 (0-0)   South Korea  @ Nizhny Novgorod Stadium, Nizhny Novgorod (UTC+3)
            [Granqvist 65' (pen.)]

(28) Sat Jun/23 18:00        South Korea   1-2 (0-1)   Mexico       @ Rostov Arena, Rostov-on-Don (UTC+3)
            [Son Heung-min 90+3'; Carlos V. 26' (pen.) J. Hernández 66']
(27) Sat Jun/23 21:00        Germany       2-1 (0-1)   Sweden       @ Fisht Stadium, Sochi (UTC+3)
            [Reus 48' Kroos 90+5'; Toivonen 32']

(43) Wed Jun/27 17:00        South Korea 2-0 (0-0) Germany      @ Kazan Arena, Kazan (UTC+3)
            [Kim Young-gwon 90+2' Son Heung-min 90+6']
(44) Wed Jun/27 19:00        Mexico 0-3 (0-0)         Sweden       @ Ekaterinburg Arena, Ekaterinburg (UTC+5)
            [-; Augustinsson 50' Granqvist 62' (pen.) Álvarez 74' (o.g.)

Group G:

(13) Mon Jun/18 18:00          Belgium   3-0 (0-0)   Panama     @ Fisht Stadium, Sochi (UTC+3)
            [Mertens 47' Lukaku 69', 75']
(14) Mon Jun/18 21:00          Tunisia   1-2 (1-1)   England    @ Volgograd Arena, Volgograd (UTC+3)
            [Sassi 35' (pen.); Kane 11', 90+1']

(29) Sat Jun/23 15:00          Belgium   5-2 (3-1)   Tunisia    @ Spartak Stadium, Moscow (UTC+3)
            [E. Hazard 6' (pen.), 51' R. Lukaku 16', 45+3', Batshuayi 90'; Bronn 18' Khazri 90+3']
(30) Sun Jun/24 15:00          England   6-1 (5-0)   Panama     @ Nizhny Novgorod Stadium, Nizhny Novgorod (UTC+3)
            [Stones 8', 40' Kane 22' (pen.), 45+1' (pen.), 62' Lingard 36'; Baloy 78']

(45) Thu Jun/28 20:00          England   0-1 (0-0)   Belgium    @ Kaliningrad Stadium, Kaliningrad (UTC+2)
            [-; Adnan Januzaj 51']
(46) Thu Jun/28 21:00          Panama    1-2 (1-0)   Tunisia    @ Mordovia Arena, Saransk (UTC+3)
            [Yassine Meriah 33' (o.g.); Fakhereedine Ben Youssef 51' Wahbi Khazri 66']


Group H:

(16) Tue Jun/19 15:00          Colombia   1-2 (1-1)  Japan      @ Mordovia Arena, Saransk (UTC+3)
            [J. Quintero 39'; Kagawa 6' (pen.) Osako 73']
(15) Tue Jun/19 18:00          Poland     1-2 (0-1)  Senegal    @ Spartak Stadium, Moscow (UTC+3)
            [Krychowiak 86'; Cionek 37' (o.g.) Niang 60']

(32) Sun Jun/24 20:00          Japan      2-2 (1-1)  Senegal      @ Ekaterinburg Arena, Ekaterinburg (UTC+5)
            [Inui 34' Honda 78'; Mané 11' M. Wagué 71']
(31) Sun Jun/24 21:00          Poland     0-3 (0-1)  Colombia     @ Kazan Arena, Kazan (UTC+3)
            [-; Y. Mina 40' Falcao 70' Cuadrado 75']

(47) Thu Jun/28 17:00          Japan     0-1 (0-1)  Poland       @ Volgograd Arena, Volgograd (UTC+3)
            [-; Bednarek 59']
(48) Thu Jun/28 18:00          Senegal   0-1 (0-1)  Colombia     @ Samara Arena, Samara (UTC+4)
            [-; Y. Mina 74']

######################
# Finals

(16) Round of 16

(49) Sat Jun/30 21:00        Uruguay     2-1 (1-0)   Portugal       @ Fisht Stadium, Sochi (UTC+3)
        [Edinson Cavani 7', 62'; Pepe 55']
(50) Sat Jun/30 17:00        France      4-3 (1-1)   Argentina      @ Kazan Arena, Kazan (UTC+3)
        [Antoine Griezmann 13' (pen.) Benjamin Pavard 57' Kylian Mbappé 64', 68'; Ángel Di María 41' Gabriel Mercado 48' Sergio Agüero 90+3']

(51) Sun Jul/1  17:00        Spain       3-4 pen. 1-1 a.e.t. (1-1, 1-1)   Russia         @ Luzhniki Stadium, Moscow (UTC+3)
        [Sergei Ignashevich 12' (o.g.); Artem Dzyuba 41' (pen.)]
(52) Sun Jul/1  21:00        Croatia     3-2 pen. 1-1 a.e.t. (1-1, 1-1)   Denmark        @ Nizhny Novgorod Stadium, Nizhny Novgorod (UTC+3)
        [Mario Mandžukić 4'; Mathias Jørgensen 1']

(53) Mon Jul/2  18:00        Brazil      2-0 (0-0)   Mexico         @ Samara Arena, Samara (UTC+4)                  
        [Neymar 51' Roberto Firmino 88']
(54) Mon Jul/2  21:00        Belgium     3-2 (0-0)   Japan          @ Rostov Arena, Rostov-on-Don (UTC+3)                  
        [Jan Vertonghen 69' Marouane Fellaini 74' Nacer Chadli 90+4'; Genki Haraguchi 48' Takashi Inui 52']

(55) Tue Jul/3  17:00        Sweden      1-0 (0-0)   Switzerland    @ Saint Petersburg Stadium, Saint Petersburg (UTC+3)
        [Emil Forsberg 66']
(56) Tue Jul/3  21:00        Colombia    3-4 pen. 1-1 a.e.t. (1-1, 0-0)   England        @ Spartak Stadium, Moscow (UTC+3)
        [Yerry Mina 90+3'; Harry Kane 57' (pen.)]


(17) Quarter-finals

(57) Fri Jul/6  17:00        Uruguay     0-2 (0-1)   France         @ Nizhny Novgorod Stadium, Nizhny Novgorod (UTC+3)
        [-; Raphaël Varane 40' Antoine Griezmann 61']
(58) Fri Jul/6  21:00        Brazil      1-2 (0-2)   Belgium        @ Kazan Arena, Kazan (UTC+3)
        [Renato Augusto 76'; Fernandinho 13' (o.g.) Kevin De Bruyne 31']
(59) Sat Jul/7  21:00        Russia      3-4 pen. 2-2 a.e.t. (1-1, 1-1)   Croatia        @ Fisht Stadium, Sochi (UTC+3)
        [Denis Cheryshev 31' Mário Figueira Fernandes 115'; Andrej Kramarić 39' Domagoj Vida 100']
(60) Sat Jul/7  18:00        Sweden      0-2 (0-1)   England        @ Samara Arena, Samara (UTC+4)
        [-; Harry Maguire 30' Dele Alli 58']


(18) Semi-finals

(61) Tue Jul/10  21:00       France      1-0 (0-0)   Belgium        @ Saint Petersburg Stadium, St. Petersburg (UTC+3)
        [Samuel Umtiti 51']
(62) Wed Jul/11  21:00        Croatia    2-1 a.e.t. (1-1, 0-1)   England        @ Luzhniki Stadium, Moscow (UTC+3)
        [Ivan Perišić 68' Mario Mandžukić 109'; Kieran Trippier 5']


(19) Match for third place

(63) Sat Jul/14  17:00        Belgium    2-0 (1-0)  England         @ Saint Petersburg Stadium, St. Petersburg (UTC+3)
        [Thomas Meunier 4' Eden Hazard 82']

(20) Final

(64) Sun Jul/15  18:00       France     4-2 (2-1)   Croatia         @ Luzhniki Stadium, Moscow (UTC+3)
        [Mandžukić 18' (o.g.) Griezmann 38' (pen.) Pogba 59' Mbappé 65'; Perišić 28' Mandžukić 69']
